{
  "unpublishedPage": {
    "name": "Page1",
    "slug": "page1",
    "layouts": [
      {
        "viewMode": false,
        "dsl": {
          "widgetName": "MainContainer",
          "backgroundColor": "none",
          "rightColumn": 4896,
          "snapColumns": 64,
          "detachFromLayout": true,
          "widgetId": "0",
          "topRow": 0,
          "bottomRow": 380,
          "containerStyle": "none",
          "snapRows": 124,
          "parentRowSpace": 1,
          "type": "CANVAS_WIDGET",
          "canExtend": true,
          "version": 80,
          "minHeight": 1292,
          "dynamicTriggerPathList": [],
          "parentColumnSpace": 1,
          "dynamicBindingPathList": [],
          "leftColumn": 0,
          "children": [
            {
              "boxShadow": "none",
              "mobileBottomRow": 36,
              "widgetName": "FilePicker1",
              "buttonColor": "{{appsmith.theme.colors.primaryColor}}",
              "displayName": "FilePicker",
              "iconSVG": "/static/media/icon.2c8bfbc118a7a5f7b61b10540a4a8881.svg",
              "searchTags": [
                "upload"
              ],
              "topRow": 32,
              "bottomRow": 36,
              "parentRowSpace": 10,
              "allowedFileTypes": [],
              "type": "FILE_PICKER_WIDGET_V2",
              "hideCard": false,
              "mobileRightColumn": 46,
              "animateLoading": true,
              "parentColumnSpace": 20.078125,
              "dynamicTriggerPathList": [],
              "leftColumn": 30,
              "dynamicBindingPathList": [
                {
                  "key": "buttonColor"
                },
                {
                  "key": "borderRadius"
                }
              ],
              "isDisabled": false,
              "key": "qlme2t0g3r",
              "isRequired": false,
              "isDeprecated": false,
              "rightColumn": 46,
              "isDefaultClickDisabled": true,
              "widgetId": "lmtesyq3a7",
              "minWidth": 120,
              "isVisible": true,
              "label": "Select Files",
              "maxFileSize": "200",
              "dynamicTyping": true,
              "version": 1,
              "fileDataType": "Base64",
              "parentId": "0",
              "selectedFiles": [],
              "renderMode": "CANVAS",
              "isLoading": false,
              "mobileTopRow": 32,
              "responsiveBehavior": "hug",
              "borderRadius": "{{appsmith.theme.borderRadius.appBorderRadius}}",
              "mobileLeftColumn": 30,
              "files": [],
              "maxNumFiles": 1
            }
          ]
        },
        "layoutOnLoadActions": [],
        "layoutOnLoadActionErrors": [],
        "validOnPageLoadActions": true,
        "id": "Page1",
        "deleted": false,
        "policies": [],
        "userPermissions": []
      }
    ],
    "userPermissions": [],
    "policies": []
  },
  "deleted": false,
  "gitSyncId": "6499d892f5725a7103916f9c_6499d892f5725a7103916f9e"
}